iTotal: 1
iTotal: 1
iTotal: 2
iTotal: 3
iTotal: 4
iTotal: 5
iTotal: 6
iTotal: 7
iTotal: 8
ERROR 07: 120
iTotal: 9
ERROR 07: 121
iTotal: 10
ERROR 03: 124
iTotal: 11
iTotal: 12
ERROR 03: 125
ERROR 04: 125
iTotal: 13
ERROR 07: 127
iTotal: 14
iTotal: 15
ERROR 07: 130
iTotal: 16
iTotal: 17
iTotal: 18
iTotal: 19
iTotal: 20
iTotal: 21
iTotal: 22
iTotal: 23
iTotal: 24
ERROR 07: 221
iTotal: 25
ERROR 04: 221
iTotal: 26
iTotal: 27
iTotal: 28
ERROR 07: 231
iTotal: 29
iTotal: 30
ERROR 07: 232
ERROR 07: 232
iTotal: 31
iTotal: 32
iTotal: 33
iTotal: 34
iTotal: 35
ERROR 07: 265
iTotal: 36
iTotal: 37
iTotal: 38
iTotal: 39
iTotal: 40
iTotal: 41
iTotal: 42
iTotal: 43
iTotal: 44
iTotal: 45
ERROR 03: 453
iTotal: 46
iTotal: 47
iTotal: 48
ERROR 07: 457
iTotal: 49
iTotal: 50
iTotal: 51
iTotal: 52
ERROR 07: 469
iTotal: 53
iTotal: 54
iTotal: 55
iTotal: 56
iTotal: 57
iTotal: 58
iTotal: 59
iTotal: 60
iTotal: 61
ERROR 07: 507
iTotal: 62
iTotal: 63
iTotal: 64
iTotal: 65
iTotal: 66
iTotal: 67
ERROR 07: 574
iTotal: 68
iTotal: 69
iTotal: 70
iTotal: 71
ERROR 07: 675
iTotal: 72
iTotal: 73
ERROR 07: 680
iTotal: 74
iTotal: 75
ERROR 07: 723
iTotal: 76
ERROR 07: 723
iTotal: 77
iTotal: 78
iTotal: 79
iTotal: 80
ERROR 06: 788
iTotal: 81
iTotal: 82
iTotal: 83
iTotal: 84
iTotal: 85
iTotal: 86
iTotal: 87
ERROR 03: 885
ERROR 07: 885
iTotal: 88
ERROR 07: 886
iTotal: 89
iTotal: 90
ERROR 07: 919
iTotal: 91
ERROR 07: 920
iTotal: 92
iTotal: 93
iTotal: 94
iTotal: 95
iTotal: 96
iTotal: 97
iTotal: 98
iTotal: 99
iTotal: 100
iTotal: 101
ERROR 07: 1087
iTotal: 102
ERROR 07: 1088
iTotal: 103
ERROR 07: 1089
iTotal: 104
ERROR 07: 1090
iTotal: 105
ERROR 07: 1091
iTotal: 106
iTotal: 107
iTotal: 108
ERROR 07: 1093
iTotal: 109
ERROR 07: 1094
iTotal: 110
iTotal: 111
iTotal: 112
ERROR 07: 1099
iTotal: 113
ERROR 07: 1116
iTotal: 114
iTotal: 115
iTotal: 116
ERROR 07: 1218
iTotal: 117
iTotal: 118
iTotal: 119
iTotal: 120
ERROR 07: 1280
iTotal: 121
iTotal: 122
ERROR 03: 1282
iTotal: 123
iTotal: 124
iTotal: 125
iTotal: 126
iTotal: 127
iTotal: 128
iTotal: 129
iTotal: 130
iTotal: 131
iTotal: 132
iTotal: 133
iTotal: 134
ERROR 07: 1300
iTotal: 135
ERROR 07: 1301
iTotal: 136
iTotal: 137
ERROR 07: 1301
iTotal: 138
iTotal: 139
iTotal: 140
ERROR 07: 1411
iTotal: 141
iTotal: 142
iTotal: 143
ERROR 03: 1416
iTotal: 144
iTotal: 145
ERROR 07: 1423
iTotal: 146
ERROR 07: 1424
iTotal: 147
iTotal: 148
ERROR 07: 1425
iTotal: 149
iTotal: 150
iTotal: 151
iTotal: 152
iTotal: 153
iTotal: 154
iTotal: 155
iTotal: 156
iTotal: 157
iTotal: 158
iTotal: 159
iTotal: 160
ERROR 07: 1443
iTotal: 161
iTotal: 162
iTotal: 163
iTotal: 164
iTotal: 165
ERROR 07: 1559
iTotal: 166
iTotal: 167
iTotal: 168
iTotal: 169
ERROR 07: 1618
iTotal: 170
iTotal: 171
ERROR 07: 1621
iTotal: 172
iTotal: 173
iTotal: 174
iTotal: 175
iTotal: 176
iTotal: 177
iTotal: 178
iTotal: 179
iTotal: 180
iTotal: 181
iTotal: 182
iTotal: 183
iTotal: 184
ERROR 07: 1790
iTotal: 185
ERROR 07: 1791
iTotal: 186
iTotal: 187
iTotal: 188
iTotal: 189
iTotal: 190
iTotal: 191
iTotal: 192
iTotal: 193
ERROR 07: 1880
iTotal: 194
ERROR 07: 1972
iTotal: 195
iTotal: 196
iTotal: 197
ERROR 07: 1985
iTotal: 198
ERROR 07: 1986
iTotal: 199
ERROR 07: 1987
iTotal: 200
iTotal: 201
iTotal: 202
iTotal: 203
iTotal: 204
iTotal: 205
iTotal: 206
iTotal: 207
ERROR 07: 2021
iTotal: 208
iTotal: 209
iTotal: 210
iTotal: 211
ERROR 07: 2032
iTotal: 212
iTotal: 213
iTotal: 214
iTotal: 215
iTotal: 216
iTotal: 217
iTotal: 218
ERROR 07: 2146
iTotal: 219
ERROR 07: 2148
iTotal: 220
iTotal: 221
ERROR 07: 2158
iTotal: 222
ERROR 07: 2158
iTotal: 223
iTotal: 224
iTotal: 225
ERROR 07: 2159
iTotal: 226
ERROR 07: 2159
iTotal: 227
iTotal: 228
ERROR 07: 2163
iTotal: 229
iTotal: 230
iTotal: 231
iTotal: 232
iTotal: 233
ERROR 07: 2167
iTotal: 234
iTotal: 235
ERROR 07: 2167
iTotal: 236
ERROR 07: 2167
iTotal: 237
ERROR 07: 2170
iTotal: 238
iTotal: 239
ERROR 07: 2171
iTotal: 240
iTotal: 241
iTotal: 242
iTotal: 243
iTotal: 244
iTotal: 245
ERROR 03: 2195
iTotal: 246
iTotal: 247
iTotal: 248
ERROR 07: 2210
iTotal: 249
iTotal: 250
iTotal: 251
iTotal: 252
iTotal: 253
iTotal: 254
iTotal: 255
ERROR 07: 2235
iTotal: 256
iTotal: 257
iTotal: 258
iTotal: 259
ERROR 07: 2348
ERROR 07: 2348
iTotal: 260
iTotal: 261
ERROR 07: 2357
iTotal: 262
iTotal: 263
iTotal: 264
iTotal: 265
iTotal: 266
iTotal: 267
ERROR 07: 2411
iTotal: 268
iTotal: 269
iTotal: 270
iTotal: 271
iTotal: 272
iTotal: 273
ERROR 07: 2420
iTotal: 274
iTotal: 275
iTotal: 276
iTotal: 277
iTotal: 278
iTotal: 279
ERROR 07: 2455
ERROR 07: 2455
iTotal: 280
iTotal: 281
iTotal: 282
ERROR 06: 2462
iTotal: 283
ERROR 03: 2463
ERROR 07: 2463
iTotal: 284
ERROR 07: 2464
iTotal: 285
iTotal: 286
iTotal: 287
iTotal: 288
iTotal: 289
ERROR 07: 2497
iTotal: 290
ERROR 07: 2498
iTotal: 291
iTotal: 292
ERROR 07: 2548
iTotal: 293
ERROR 03: 2548
iTotal: 294
iTotal: 295
iTotal: 296
iTotal: 297
ERROR 07: 2560
iTotal: 298
iTotal: 299
ERROR 07: 2562
iTotal: 300
iTotal: 301
iTotal: 302
iTotal: 303
iTotal: 304
ERROR 07: 2655
iTotal: 305
iTotal: 306
iTotal: 307
iTotal: 308
iTotal: 309
iTotal: 310
iTotal: 311
iTotal: 312
iTotal: 313
ERROR 07: 2828
iTotal: 314
iTotal: 315
iTotal: 316
iTotal: 317
iTotal: 318
iTotal: 319
iTotal: 320
iTotal: 321
iTotal: 322
iTotal: 323
iTotal: 324
iTotal: 325
iTotal: 326
iTotal: 327
iTotal: 328
iTotal: 329
iTotal: 330
iTotal: 331
iTotal: 332
iTotal: 333
iTotal: 334
iTotal: 335
iTotal: 336
iTotal: 337
iTotal: 338
iTotal: 339
iTotal: 340
iTotal: 341
ERROR 07: 3167
iTotal: 342
iTotal: 343
iTotal: 344
iTotal: 345
iTotal: 346
ERROR 07: 3237
iTotal: 347
ERROR 07: 3304
iTotal: 348
iTotal: 349
iTotal: 350
iTotal: 351
iTotal: 352
iTotal: 353
iTotal: 354
iTotal: 355
ERROR 07: 3398
iTotal: 356
ERROR 07: 3436
iTotal: 357
iTotal: 358
iTotal: 359
iTotal: 360
iTotal: 361
iTotal: 362
iTotal: 363
iTotal: 364
iTotal: 365
iTotal: 366
iTotal: 367
iTotal: 368
iTotal: 369
iTotal: 370
iTotal: 371
iTotal: 372
iTotal: 373
ERROR 07: 3641
iTotal: 374
iTotal: 375
iTotal: 376
iTotal: 377
iTotal: 378
ERROR 06: 3737
ERROR 07: 3737
iTotal: 379
ERROR 07: 3738
iTotal: 380
iTotal: 381
iTotal: 382
iTotal: 383
iTotal: 384
iTotal: 385
ERROR 07: 3839
iTotal: 386
ERROR 07: 3840
iTotal: 387
iTotal: 388
iTotal: 389
iTotal: 390
iTotal: 391
iTotal: 392
iTotal: 393
ERROR 07: 3918
iTotal: 394
ERROR 03: 3920
ERROR 07: 3920
iTotal: 395
iTotal: 396
iTotal: 397
iTotal: 398
iTotal: 399
iTotal: 400
iTotal: 401
ERROR 07: 4072
iTotal: 402
iTotal: 403
iTotal: 404
iTotal: 405
iTotal: 406
iTotal: 407
ERROR 07: 4144
iTotal: 408
iTotal: 409
iTotal: 410
iTotal: 411
iTotal: 412
iTotal: 413
iTotal: 414
iTotal: 415
iTotal: 416
iTotal: 417
iTotal: 418
iTotal: 419
iTotal: 420
iTotal: 421
iTotal: 422
iTotal: 423
iTotal: 424
iTotal: 425
iTotal: 426
iTotal: 427
ERROR 07: 4554
iTotal: 428
iTotal: 429
ERROR 07: 4574
iTotal: 430
ERROR 07: 4580
iTotal: 431
iTotal: 432
iTotal: 433
iTotal: 434
iTotal: 435
iTotal: 436
iTotal: 437
iTotal: 438
iTotal: 439
ERROR 07: 4620
iTotal: 440
iTotal: 441
ERROR 07: 4685
iTotal: 442
iTotal: 443
iTotal: 444
ERROR 07: 4696
iTotal: 445
ERROR 06: 4701
iTotal: 446
iTotal: 447
iTotal: 448
iTotal: 449
ERROR 07: 4731
iTotal: 450
iTotal: 451
iTotal: 452
iTotal: 453
iTotal: 454
ERROR 07: 4754
iTotal: 455
iTotal: 456
iTotal: 457
iTotal: 458
ERROR 07: 4765
iTotal: 459
iTotal: 460
iTotal: 461
iTotal: 462
iTotal: 463
iTotal: 464
iTotal: 465
iTotal: 466
ERROR 07: 4978
ERROR 07: 4978
iTotal: 467
ERROR 07: 4979
iTotal: 468
iTotal: 469
iTotal: 470
ERROR 03: 4988
ERROR 07: 4988
iTotal: 471
iTotal: 472
ERROR 07: 5081
iTotal: 473
ERROR 07: 5083
ERROR 07: 5083
iTotal: 474
iTotal: 475
ERROR 07: 5085
iTotal: 476
iTotal: 477
iTotal: 478
iTotal: 479
iTotal: 480
ERROR 07: 5150
ERROR 07: 5150
iTotal: 481
ERROR 07: 5153
iTotal: 482
iTotal: 483
iTotal: 484
ERROR 03: 5178
iTotal: 485
iTotal: 486
iTotal: 487
ERROR 07: 5254
iTotal: 488
iTotal: 489
iTotal: 490
iTotal: 491
iTotal: 492
iTotal: 493
ERROR 07: 5424
iTotal: 494
iTotal: 495
ERROR 07: 5427
iTotal: 496
iTotal: 497
iTotal: 498
iTotal: 499
iTotal: 500
iTotal: 501
iTotal: 502
iTotal: 503
ERROR 06: 5507
ERROR 07: 5507
iTotal: 504
iTotal: 505
iTotal: 506
ERROR 07: 5507
iTotal: 507
iTotal: 508
iTotal: 509
iTotal: 510
iTotal: 511
iTotal: 512
ERROR 03: 5586
ERROR 07: 5586
iTotal: 513
ERROR 07: 5587
iTotal: 514
iTotal: 515
iTotal: 516
ERROR 07: 5588
iTotal: 517
iTotal: 518
iTotal: 519
iTotal: 520
iTotal: 521
ERROR 03: 5607
iTotal: 522
iTotal: 523
iTotal: 524
iTotal: 525
iTotal: 526
iTotal: 527
iTotal: 528
iTotal: 529
iTotal: 530
ERROR 07: 5723
iTotal: 531
iTotal: 532
iTotal: 533
iTotal: 534
ERROR 07: 5743
iTotal: 535
ERROR 07: 5744
iTotal: 536
ERROR 07: 5745
iTotal: 537
ERROR 07: 5747
iTotal: 538
iTotal: 539
iTotal: 540
iTotal: 541
iTotal: 542
iTotal: 543
ERROR 07: 5859
iTotal: 544
ERROR 07: 5860
iTotal: 545
ERROR 07: 5861
iTotal: 546
iTotal: 547
iTotal: 548
iTotal: 549
iTotal: 550
iTotal: 551
iTotal: 552
iTotal: 553
iTotal: 554
iTotal: 555
iTotal: 556
iTotal: 557
iTotal: 558
iTotal: 559
iTotal: 560
iTotal: 561
iTotal: 562
iTotal: 563
ERROR 07: 6001
iTotal: 564
ERROR 03: 6001
iTotal: 565
iTotal: 566
iTotal: 567
iTotal: 568
iTotal: 569
iTotal: 570
iTotal: 571
iTotal: 572
iTotal: 573
ERROR 07: 6111
iTotal: 574
iTotal: 575
ERROR 07: 6132
iTotal: 576
iTotal: 577
ERROR 07: 6139
iTotal: 578
iTotal: 579
ERROR 07: 6144
iTotal: 580
iTotal: 581
iTotal: 582
iTotal: 583
iTotal: 584
iTotal: 585
iTotal: 586
iTotal: 587
ERROR 07: 6250
iTotal: 588
iTotal: 589
iTotal: 590
iTotal: 591
iTotal: 592
ERROR 06: 6352
iTotal: 593
iTotal: 594
iTotal: 595
iTotal: 596
ERROR 06: 6412
iTotal: 597
ERROR 07: 6413
iTotal: 598
iTotal: 599
ERROR 07: 6471
ERROR 07: 6471
iTotal: 600
iTotal: 601
iTotal: 602
iTotal: 603
iTotal: 604
iTotal: 605
iTotal: 606
iTotal: 607
iTotal: 608
ERROR 07: 6742
iTotal: 609
iTotal: 610
iTotal: 611
iTotal: 612
ERROR 07: 7001
ERROR 07: 7001
iTotal: 613
iTotal: 614
iTotal: 615
iTotal: 616
iTotal: 617
ERROR 07: 7102
iTotal: 618
iTotal: 619
iTotal: 620
iTotal: 621
ERROR 07: 7111
iTotal: 622
iTotal: 623
iTotal: 624
iTotal: 625
iTotal: 626
ERROR 07: 7204
iTotal: 627
iTotal: 628
ERROR 07: 7231
iTotal: 629
iTotal: 630
iTotal: 631
iTotal: 632
iTotal: 633
iTotal: 634
iTotal: 635
iTotal: 636
iTotal: 637
ERROR 07: 7422
iTotal: 638
ERROR 07: 7424
iTotal: 639
iTotal: 640
iTotal: 641
iTotal: 642
iTotal: 643
iTotal: 644
iTotal: 645
iTotal: 646
iTotal: 647
iTotal: 648
iTotal: 649
iTotal: 650
iTotal: 651
iTotal: 652
iTotal: 653
iTotal: 654
iTotal: 655
iTotal: 656
iTotal: 657
iTotal: 658
iTotal: 659
iTotal: 660
iTotal: 661
iTotal: 662
ERROR 07: 7799
iTotal: 663
iTotal: 664
iTotal: 665
iTotal: 666
iTotal: 667
iTotal: 668
iTotal: 669
iTotal: 670
ERROR 07: 7922
iTotal: 671
iTotal: 672
ERROR 07: 7925
iTotal: 673
iTotal: 674
iTotal: 675
iTotal: 676
ERROR 07: 7945
iTotal: 677
iTotal: 678
ERROR 06: 7954
iTotal: 679
iTotal: 680
iTotal: 681
iTotal: 682
iTotal: 683
iTotal: 684
ERROR 07: 7991
iTotal: 685
ERROR 07: 7992
iTotal: 686
iTotal: 687
iTotal: 688
iTotal: 689
iTotal: 690
iTotal: 691
iTotal: 692
iTotal: 693
iTotal: 694
iTotal: 695
ERROR 07: 8013
iTotal: 696
iTotal: 697
iTotal: 698
iTotal: 699
ERROR 07: 8018
iTotal: 700
iTotal: 701
iTotal: 702
iTotal: 703
ERROR 07: 8077
iTotal: 704
iTotal: 705
iTotal: 706
iTotal: 707
iTotal: 708
ERROR 07: 8187
iTotal: 709
iTotal: 710
iTotal: 711
iTotal: 712
ERROR 07: 8192
iTotal: 713
iTotal: 714
iTotal: 715
iTotal: 716
iTotal: 717
ERROR 07: 8290
iTotal: 718
iTotal: 719
iTotal: 720
iTotal: 721
iTotal: 722
iTotal: 723
ERROR 07: 8342
iTotal: 724
iTotal: 725
iTotal: 726
iTotal: 727
iTotal: 728
iTotal: 729
iTotal: 730
iTotal: 731
ERROR 07: 8415
iTotal: 732
iTotal: 733
iTotal: 734
iTotal: 735
iTotal: 736
iTotal: 737
ERROR 07: 8488
iTotal: 738
iTotal: 739
iTotal: 740
iTotal: 741
iTotal: 742
ERROR 07: 8565
iTotal: 743
iTotal: 744
iTotal: 745
ERROR 07: 8573
iTotal: 746
ERROR 07: 8595
iTotal: 747
iTotal: 748
iTotal: 749
iTotal: 750
iTotal: 751
ERROR 07: 8730
iTotal: 752
iTotal: 753
iTotal: 754
iTotal: 755
iTotal: 756
iTotal: 757
iTotal: 758
iTotal: 759
iTotal: 760
iTotal: 761
ERROR 07: 8902
iTotal: 762
iTotal: 763
iTotal: 764
iTotal: 765
iTotal: 766
ERROR 07: 8922
iTotal: 767
iTotal: 768
iTotal: 769
iTotal: 770
iTotal: 771
iTotal: 772
iTotal: 773
iTotal: 774
iTotal: 775
ERROR 07: 8940
iTotal: 776
ERROR 06: 8942
iTotal: 777
iTotal: 778
ERROR 07: 8986
iTotal: 779
ERROR 06: 8988
iTotal: 780
iTotal: 781
ERROR 07: 8990
iTotal: 782
iTotal: 783
iTotal: 784
iTotal: 785
iTotal: 786
ERROR 07: 9045
iTotal: 787
iTotal: 788
iTotal: 789
iTotal: 790
iTotal: 791
iTotal: 792
iTotal: 793
iTotal: 794
iTotal: 795
iTotal: 796
iTotal: 797
ERROR 07: 9096
iTotal: 798
iTotal: 799
iTotal: 800
iTotal: 801
ERROR 06: 9125
iTotal: 802
iTotal: 803
iTotal: 804
iTotal: 805
iTotal: 806
iTotal: 807
iTotal: 808
iTotal: 809
iTotal: 810
iTotal: 811
iTotal: 812
iTotal: 813
iTotal: 814
iTotal: 815
iTotal: 816
iTotal: 817
iTotal: 818
ERROR 03: 9427
iTotal: 819
ERROR 07: 9427
iTotal: 820
iTotal: 821
iTotal: 822
iTotal: 823
iTotal: 824
iTotal: 825
iTotal: 826
iTotal: 827
iTotal: 828
ERROR 03: 9671
iTotal: 829
iTotal: 830
ERROR 07: 9777
ERROR 07: 9777
iTotal: 831
iTotal: 832
iTotal: 833
iTotal: 834
ERROR 07: 9836
iTotal: 835
ERROR 03: 9837
iTotal: 836
iTotal: 837
iTotal: 838
iTotal: 839
iTotal: 840
iTotal: 841
iTotal: 842
iTotal: 843
iTotal: 844
ERROR 07: 9962
iTotal: 845
iTotal: 846
iTotal: 847
iTotal: 848
ERROR 07: 9977
iTotal: 849
iTotal: 850
iTotal: 851
iTotal: 852
iTotal: 853
ERROR 07: 10013
iTotal: 854
ERROR 03: 10014
iTotal: 855
iTotal: 856
ERROR 07: 10015
iTotal: 857
iTotal: 858
iTotal: 859
iTotal: 860
iTotal: 861
iTotal: 862
iTotal: 863
iTotal: 864
iTotal: 865
ERROR 07: 10081
iTotal: 866
iTotal: 867
ERROR 07: 10107
iTotal: 868
iTotal: 869
iTotal: 870
iTotal: 871
iTotal: 872
iTotal: 873
iTotal: 874
ERROR 07: 10195
iTotal: 875
ERROR 07: 10196
iTotal: 876
ERROR 07: 10198
iTotal: 877
ERROR 06: 10199
iTotal: 878
iTotal: 879
iTotal: 880
iTotal: 881
iTotal: 882
iTotal: 883
iTotal: 884
iTotal: 885
iTotal: 886
iTotal: 887
ERROR 03: 10372
ERROR 07: 10372
iTotal: 888
iTotal: 889
ERROR 07: 10396
ERROR 07: 10396
iTotal: 890
ERROR 07: 10397
iTotal: 891
iTotal: 892
iTotal: 893
ERROR 07: 10477
iTotal: 894
ERROR 07: 10478
iTotal: 895
iTotal: 896
iTotal: 897
iTotal: 898
iTotal: 899
iTotal: 900
ERROR 07: 10484
iTotal: 901
iTotal: 902
iTotal: 903
iTotal: 904
iTotal: 905
ERROR 07: 10521
iTotal: 906
iTotal: 907
iTotal: 908
iTotal: 909
ERROR 07: 10633
iTotal: 910
iTotal: 911
iTotal: 912
iTotal: 913
iTotal: 914
iTotal: 915
ERROR 07: 10639
iTotal: 916
iTotal: 917
iTotal: 918
iTotal: 919
iTotal: 920
iTotal: 921
iTotal: 922
ERROR 07: 10647
iTotal: 923
iTotal: 924
iTotal: 925
iTotal: 926
ERROR 07: 10651
iTotal: 927
iTotal: 928
iTotal: 929
iTotal: 930
iTotal: 931
ERROR 07: 10719
iTotal: 932
iTotal: 933
iTotal: 934
iTotal: 935
ERROR 07: 10722
iTotal: 936
iTotal: 937
ERROR 07: 10799
iTotal: 938
iTotal: 939
iTotal: 940
iTotal: 941
iTotal: 942
iTotal: 943
iTotal: 944